<?xml version="1.0" encoding="utf-8"?>
<!-- Generator: Adobe Illustrator 21.1.0, SVG Export Plug-In . SVG Version: 6.00 Build 0)  -->
<svg version="1.1" id="Layer_1" xmlns="http://www.w3.org/2000/svg" xmlns:xlink="http://www.w3.org/1999/xlink" x="0px" y="0px"
	 viewBox="0 0 32 32" style="enable-background:new 0 0 32 32;" xml:space="preserve">
<style type="text/css">
	.st0{fill-rule:evenodd;clip-rule:evenodd; fill:#fff;}
</style>
<g>
	<path class="st0" d="M25.4,28.4c-4.8,0.3-9.6,0.3-14.4,0c0,0.5,0,0.9,0,1.4c0,0.8-0.3,1.1-1.1,1.1c-0.4,0-0.8,0-1.2,0
		c-0.6,0-0.9-0.4-1-0.9c0-0.6,0-1.2,0-1.7c0-0.2,0-0.3-0.3-0.4c-0.6-0.2-1-0.6-1.2-1.2c-0.8-2.1-1.1-4.3-0.3-6.5
		c0.5-1.4,0.5-1.3,1.9-1.3c2.5,0,5,0,7.5,0c0.5,0,1-0.1,1.5-0.2c0.9-0.2,1.5-0.8,1.8-1.7c0.1-0.2,0.2-0.3,0.5-0.3
		c2.4,0.1,4.8,0.2,7.2,0.5c0.1,0,0.2,0,0.4,0c0-0.2-0.1-0.4-0.1-0.7c-0.3-1.3-0.8-2.6-1.6-3.8c-0.1-0.2-0.3-0.3-0.5-0.4
		c-1.3-0.4-2.6-0.5-3.9-0.6c-0.5,0-1.1,0-1.7,0c0-0.6,0-1.2,0-1.7c0,0,0,0,0.1,0c1.9,0,3.8,0,5.6,0.5c0.9,0.2,1.6,0.7,2.1,1.6
		c0.7,1.4,1.3,2.9,1.8,4.5c0,0,0,0.1,0.1,0.2c0.2-0.2,0.4-0.4,0.5-0.6c0.2-0.5,0.6-0.7,1.2-0.7c0.4,0,0.8,0,1.2,0
		c0.5,0,0.7,0.3,0.8,0.8c0,0.2,0,0.4,0,0.7c0,0.5-0.3,0.7-0.8,0.7c-0.7,0-1.4,0-2,0c-0.1,0-0.2,0-0.4,0c0.3,0.3,0.5,0.5,0.7,0.8
		c0.9,1.2,1.4,2.6,1.4,4.1c0,1.1-0.1,2.3-0.5,3.4c-0.3,0.8-0.7,1.6-1.5,1.9c-0.1,0-0.2,0.2-0.2,0.3c0,0.6,0,1.1,0,1.7
		c0,0.6-0.4,1-1,1c-0.4,0-0.9,0-1.3,0c-0.6,0-1-0.4-1-1C25.4,29.4,25.4,29,25.4,28.4z M18.2,21c-1.1,0-2.3,0-3.4,0
		c-0.4,0-0.6,0.2-0.5,0.6c0.2,0.8,0.5,1.6,0.7,2.4c0.1,0.3,0.2,0.4,0.5,0.4c1.7,0,3.5,0,5.2,0c0.3,0,0.4-0.1,0.5-0.4
		c0.2-0.8,0.5-1.5,0.7-2.3c0.1-0.5,0-0.7-0.5-0.7C20.4,21,19.3,21,18.2,21z M26.3,23.2C26.3,23.2,26.3,23.2,26.3,23.2
		c0.6,0,1.3,0,1.9,0c0.4,0,0.5-0.1,0.5-0.5c0-0.4,0-0.8,0-1.2c0-0.4-0.1-0.5-0.5-0.5c-1,0-2,0-3,0c-0.3,0-0.6,0.1-0.7,0.4
		c-0.2,0.4-0.3,0.9-0.5,1.4c-0.1,0.3,0,0.4,0.4,0.4C25.1,23.2,25.7,23.2,26.3,23.2z M10,23.2c0.6,0,1.3,0,1.9,0
		c0.3,0,0.4-0.1,0.4-0.4c-0.1-0.5-0.3-1-0.5-1.5c-0.1-0.2-0.4-0.4-0.6-0.4c-1,0-2.1,0-3.1,0c-0.3,0-0.4,0.1-0.4,0.4
		c0,0.5,0,0.9,0,1.4c0,0.3,0.1,0.5,0.4,0.5C8.8,23.2,9.4,23.2,10,23.2z"/>
	<path class="st0" d="M8.8,17.6c-2,0-4,0-6.1,0c-1.6,0-2.7-1.1-2.7-2.7c0-3.7,0-7.5,0-11.2c0-1.5,1.1-2.6,2.6-2.6
		c4.1,0,8.3,0,12.4,0c1.5,0,2.6,1.1,2.6,2.6c0,3.7,0,7.5,0,11.2c0,1.6-1.1,2.7-2.7,2.7C12.9,17.6,10.9,17.6,8.8,17.6
		C8.8,17.6,8.8,17.6,8.8,17.6z M7.7,11c0.8,0,1.5,0,2.2,0c1.2,0,2.2-1,2.2-2.2c0-0.8,0-1.5,0-2.3c0-1.2-1-2.2-2.2-2.2
		c-1.4,0-2.8,0-4.2,0c-0.3,0-0.3,0.1-0.3,0.4c0,3.1,0,6.2,0,9.3c0,0.2,0.1,0.4,0.3,0.3c0.5,0,0.9,0,1.4,0c0.5,0,0.5,0,0.5-0.5
		C7.7,12.9,7.7,12,7.7,11z"/>
	<path class="st0" d="M7.8,6.6c0.6,0,1.1,0,1.7,0c0.3,0,0.4,0.2,0.5,0.5c0,0.4,0,0.8,0,1.2c0,0.3-0.2,0.5-0.5,0.5
		c-0.5,0-1.1,0-1.7,0C7.8,8.1,7.8,7.4,7.8,6.6z"/>
</g>
</svg>
